http://zbw.eu/stw/descriptor/18860-2
http://zbw.eu/stw/descriptor/15945-2
http://zbw.eu/stw/descriptor/19037-3
http://zbw.eu/stw/descriptor/16699-0
http://zbw.eu/stw/descriptor/15925-1
http://zbw.eu/stw/descriptor/10169-3
http://zbw.eu/stw/descriptor/17374-2
http://zbw.eu/stw/descriptor/18970-2
http://zbw.eu/stw/descriptor/11222-6
http://zbw.eu/stw/descriptor/15807-0

