http://zbw.eu/stw/descriptor/15943-6
http://zbw.eu/stw/descriptor/19073-6
http://zbw.eu/stw/descriptor/10414-2
http://zbw.eu/stw/descriptor/11224-2
http://zbw.eu/stw/descriptor/15708-2
http://zbw.eu/stw/descriptor/15949-1

