http://zbw.eu/stw/descriptor/10488-1
http://zbw.eu/stw/descriptor/10991-6
http://zbw.eu/stw/descriptor/17039-2
http://zbw.eu/stw/descriptor/19508-4
http://zbw.eu/stw/descriptor/15937-1
http://zbw.eu/stw/descriptor/11687-4
http://zbw.eu/stw/descriptor/10169-3

