http://zbw.eu/stw/descriptor/18335-0
http://zbw.eu/stw/descriptor/17829-1
http://zbw.eu/stw/descriptor/29381-3
http://zbw.eu/stw/descriptor/11070-3
http://zbw.eu/stw/descriptor/19642-0
http://zbw.eu/stw/descriptor/28952-5
http://zbw.eu/stw/descriptor/26773-1

