http://zbw.eu/stw/descriptor/15945-2
http://zbw.eu/stw/descriptor/17829-1
http://zbw.eu/stw/descriptor/15937-1
http://zbw.eu/stw/descriptor/10169-3
http://zbw.eu/stw/descriptor/16815-3
http://zbw.eu/stw/descriptor/19044-6
http://zbw.eu/stw/descriptor/10177-4
http://zbw.eu/stw/descriptor/10036-1

