http://zbw.eu/stw/descriptor/15264-5
http://zbw.eu/stw/descriptor/15062-3
http://zbw.eu/stw/descriptor/15149-5
http://zbw.eu/stw/descriptor/15266-1
http://zbw.eu/stw/descriptor/19044-6
http://zbw.eu/stw/descriptor/15125-5
http://zbw.eu/stw/descriptor/19073-6

