http://zbw.eu/stw/descriptor/13406-0
http://zbw.eu/stw/descriptor/11182-6
http://zbw.eu/stw/descriptor/19534-3
http://zbw.eu/stw/descriptor/19037-3
http://zbw.eu/stw/descriptor/18012-3
http://zbw.eu/stw/descriptor/19605-6

