http://zbw.eu/stw/descriptor/18131-2
http://zbw.eu/stw/descriptor/19524-6
http://zbw.eu/stw/descriptor/18062-2
http://zbw.eu/stw/descriptor/11728-2
http://zbw.eu/stw/descriptor/11345-4
http://zbw.eu/stw/descriptor/11636-0
http://zbw.eu/stw/descriptor/18012-3
http://zbw.eu/stw/descriptor/11182-6

