http://zbw.eu/stw/descriptor/10434-3
http://zbw.eu/stw/descriptor/15708-2
http://zbw.eu/stw/descriptor/16809-5
http://zbw.eu/stw/descriptor/19044-6
http://zbw.eu/stw/descriptor/10466-4
http://zbw.eu/stw/descriptor/10414-2
http://zbw.eu/stw/descriptor/11735-5
http://zbw.eu/stw/descriptor/11224-2

