http://zbw.eu/stw/descriptor/16990-6
http://zbw.eu/stw/descriptor/19639-3
http://zbw.eu/stw/descriptor/19533-5
http://zbw.eu/stw/descriptor/15952-5
http://zbw.eu/stw/descriptor/16318-3
http://zbw.eu/stw/descriptor/19073-6
http://zbw.eu/stw/descriptor/11235-4
http://zbw.eu/stw/descriptor/11770-3

