http://zbw.eu/stw/descriptor/19073-6
http://zbw.eu/stw/descriptor/11706-5
http://zbw.eu/stw/descriptor/18140-1
http://zbw.eu/stw/descriptor/10073-2
http://zbw.eu/stw/descriptor/10842-2
http://zbw.eu/stw/descriptor/10043-4
http://zbw.eu/stw/descriptor/11688-2

