http://zbw.eu/stw/descriptor/11753-3
http://zbw.eu/stw/descriptor/11284-5
http://zbw.eu/stw/descriptor/11211-4
http://zbw.eu/stw/descriptor/15918-5
http://zbw.eu/stw/descriptor/11189-6
http://zbw.eu/stw/descriptor/17829-1

