http://zbw.eu/stw/descriptor/11272-5
http://zbw.eu/stw/descriptor/19570-6
http://zbw.eu/stw/descriptor/15225-1
http://zbw.eu/stw/descriptor/17935-2
http://zbw.eu/stw/descriptor/17829-1
http://zbw.eu/stw/descriptor/19037-3
http://zbw.eu/stw/descriptor/17811-6

