http://zbw.eu/stw/descriptor/17829-1
http://zbw.eu/stw/descriptor/14436-0
http://zbw.eu/stw/descriptor/15861-1
http://zbw.eu/stw/descriptor/16635-5
http://zbw.eu/stw/descriptor/19037-3
http://zbw.eu/stw/descriptor/13979-2
http://zbw.eu/stw/descriptor/15466-0
http://zbw.eu/stw/descriptor/15787-1

