http://zbw.eu/stw/descriptor/16595-5
http://zbw.eu/stw/descriptor/19073-6
http://zbw.eu/stw/descriptor/10194-4
http://zbw.eu/stw/descriptor/12573-0
http://zbw.eu/stw/descriptor/11360-1
http://zbw.eu/stw/descriptor/19825-6

