http://zbw.eu/stw/descriptor/18970-2
http://zbw.eu/stw/descriptor/10991-6
http://zbw.eu/stw/descriptor/17829-1
http://zbw.eu/stw/descriptor/19553-6
http://zbw.eu/stw/descriptor/11702-6
http://zbw.eu/stw/descriptor/11687-4
http://zbw.eu/stw/descriptor/18900-2

