http://zbw.eu/stw/descriptor/17915-1
http://zbw.eu/stw/descriptor/11409-4
http://zbw.eu/stw/descriptor/16193-4
http://zbw.eu/stw/descriptor/16550-6
http://zbw.eu/stw/descriptor/11354-3
http://zbw.eu/stw/descriptor/11599-1

