http://zbw.eu/stw/descriptor/11735-5
http://zbw.eu/stw/descriptor/10414-2
http://zbw.eu/stw/descriptor/15723-6
http://zbw.eu/stw/descriptor/15914-6
http://zbw.eu/stw/descriptor/16809-5
http://zbw.eu/stw/descriptor/15918-5
http://zbw.eu/stw/descriptor/15952-5

