http://zbw.eu/stw/descriptor/19601-0
http://zbw.eu/stw/descriptor/28710-1
http://zbw.eu/stw/descriptor/17829-1
http://zbw.eu/stw/descriptor/19788-0
http://zbw.eu/stw/descriptor/15925-1
http://zbw.eu/stw/descriptor/18864-1

