http://zbw.eu/stw/descriptor/10991-6
http://zbw.eu/stw/descriptor/16533-6
http://zbw.eu/stw/descriptor/10343-6
http://zbw.eu/stw/descriptor/11243-5
http://zbw.eu/stw/descriptor/19664-4
http://zbw.eu/stw/descriptor/17476-1

