http://zbw.eu/stw/descriptor/11161-0
http://zbw.eu/stw/descriptor/11230-0
http://zbw.eu/stw/descriptor/11270-2
http://zbw.eu/stw/descriptor/13406-0
http://zbw.eu/stw/descriptor/18012-3
http://zbw.eu/stw/descriptor/19493-5

