http://zbw.eu/stw/descriptor/11718-5
http://zbw.eu/stw/descriptor/11688-2
http://zbw.eu/stw/descriptor/19073-6
http://zbw.eu/stw/descriptor/11039-4
http://zbw.eu/stw/descriptor/21082-4
http://zbw.eu/stw/descriptor/11543-0
http://zbw.eu/stw/descriptor/19223-6

