http://zbw.eu/stw/descriptor/19642-0
http://zbw.eu/stw/descriptor/16668-4
http://zbw.eu/stw/descriptor/12571-4
http://zbw.eu/stw/descriptor/11189-6
http://zbw.eu/stw/descriptor/15932-4
http://zbw.eu/stw/descriptor/17829-1

