http://zbw.eu/stw/descriptor/19516-5
http://zbw.eu/stw/descriptor/18869-5
http://zbw.eu/stw/descriptor/11366-3
http://zbw.eu/stw/descriptor/28414-5
http://zbw.eu/stw/descriptor/19005-2
http://zbw.eu/stw/descriptor/17749-6
http://zbw.eu/stw/descriptor/17721-0

