http://d-nb.info/gnd/4035549-4
http://d-nb.info/gnd/4161986-9
http://d-nb.info/gnd/4113987-2
http://d-nb.info/gnd/1064023886
http://d-nb.info/gnd/3020305-3
http://d-nb.info/gnd/7565402-7
http://d-nb.info/gnd/10094516-8

