{ "URL" : "https://metadata.limbo-project.org/dataset-Koordinaten-der-Zugangsmoeglichkeiten-zu-Stationen--823928754", "spotlight" : {"@text":"\"Koordinaten der Zugangsmöglichkeiten zu Stationen\\n\\nDer Verkehrsverbund Berlin-Brandenburg (VBB) stellt Daten zu seinen Haltestellen zur Verfügung. Enthalten sind die Koordinaten der Zugangsmöglichkeiten zu Bahn-, Tram- und Bussteige, zu Aufzüge, Rampen etc., um testen zu können, wie diese Daten für die Kunden aufbereitet und mit weiteren Informationen verknüpft werden können. Die Stationen enthalten auch die IDs der API und des GTFS-Datensatzes.\"","@confidence":"0.5","@support":"0","@types":"","@sparql":"","@policy":"whitelist","Resources":[{"@URI":"http://de.dbpedia.org/resource/Verkehrsverbund_Berlin-Brandenburg","@support":"289","@types":"Wikidata:Q43229,Wikidata:Q24229398,DUL:SocialPerson,DUL:Agent,Schema:Organization,DBpedia:Organisation,DBpedia:Agent","@surfaceForm":"Verkehrsverbund Berlin-Brandenburg","@offset":"58","@similarityScore":"1.0","@percentageOfSecondRank":"0.0"},{"@URI":"http://de.dbpedia.org/resource/Verkehrsverbund_Berlin-Brandenburg","@support":"289","@types":"Wikidata:Q43229,Wikidata:Q24229398,DUL:SocialPerson,DUL:Agent,Schema:Organization,DBpedia:Organisation,DBpedia:Agent","@surfaceForm":"VBB","@offset":"94","@similarityScore":"0.9999999925134944","@percentageOfSecondRank":"4.821381827813395E-9"},{"@URI":"http://de.dbpedia.org/resource/Eisenbahn","@support":"5739","@types":"Wikidata:Q386724,Schema:CreativeWork,DBpedia:WrittenWork,DBpedia:Work","@surfaceForm":"Bahn-","@offset":"209","@similarityScore":"0.947441215695435","@percentageOfSecondRank":"0.0547746176178408"},{"@URI":"http://de.dbpedia.org/resource/Chicago_Elevated","@support":"33","@types":"","@surfaceForm":"Tram","@offset":"216","@similarityScore":"0.599566630697947","@percentageOfSecondRank":"0.6333602350105056"},{"@URI":"http://de.dbpedia.org/resource/Aufzugsanlage","@support":"1132","@types":"Wikidata:Q386724,Schema:CreativeWork,DBpedia:WrittenWork,DBpedia:Work","@surfaceForm":"Aufzüge","@offset":"240","@similarityScore":"1.0","@percentageOfSecondRank":"1.3506040718887718E-15"},{"@URI":"http://de.dbpedia.org/resource/Programmierschnittstelle","@support":"1306","@types":"Wikidata:Q386724,Schema:CreativeWork,DBpedia:WrittenWork,DBpedia:Work","@surfaceForm":"API","@offset":"423","@similarityScore":"0.9999394420694266","@percentageOfSecondRank":"6.054952739923952E-5"}]}, "uris": [
  {
    "dbpedia": "http://de.dbpedia.org/resource/Verkehrsverbund_Berlin-Brandenburg",
    "wikidata": "http://www.wikidata.org/entity/Q315451",
    "gnd": "10011774-0",
    "gndLabel": "Verkehrsverbund Berlin-Brandenburg"
  },
  {
    "dbpedia": "http://de.dbpedia.org/resource/Chicago_Elevated",
    "wikidata": "http://www.wikidata.org/entity/Q820880",
    "gnd": "16083644-X",
    "gndLabel": "Tram"
  },
  {
    "dbpedia": "http://de.dbpedia.org/resource/Aufzugsanlage",
    "wikidata": "http://www.wikidata.org/entity/Q132911",
    "gnd": "4129902-4",
    "gndLabel": "Aufzug <Fördermittel>"
  },
  {
    "dbpedia": "http://de.dbpedia.org/resource/Programmierschnittstelle",
    "wikidata": "http://www.wikidata.org/entity/Q165194",
    "gnd": "4430243-5",
    "gndLabel": "API"
  }
] }
