{ "URL" : "https://metadata.limbo-project.org/dataset-Gerasterte-monatliche-mittlere-Windgeschwindigkeit-fuer-Europa-Projekt-DecReg/MiKlip-Version-v001-abgeloeste-version-360259191", "spotlight" : {"@text":"\"Gerasterte monatliche mittlere Windgeschwindigkeit für Europa (Projekt DecReg/MiKlip) - Version v001 abgelöste version\\n\\nDiese Daten sind das Ergebnis v001 des Regionalisierungsprojektes DecReg /MiKlip. Ziel war ein langzeitstabiler Datensatz zur Validierung dekadischer Klimaprognosen. Wegen einem Fehler in den netcdf-headern ist v001 durch die korrigierte Version v002 abgelöst. Weitere Informationen: https://opendata.dwd.de/climate_environment/CDC/grids_europe/monthly/wind/MIKLIP_DECREG/v001/BESCHREIBUNG_gridseu_monthly_wind_MIKLIP_DECREG_de.pdf\"","@confidence":"0.5","@support":"0","@types":"","@sparql":"","@policy":"whitelist","Resources":[{"@URI":"http://de.dbpedia.org/resource/Windgeschwindigkeit","@support":"461","@types":"","@surfaceForm":"Windgeschwindigkeit","@offset":"32","@similarityScore":"0.9999999999947136","@percentageOfSecondRank":"0.0"},{"@URI":"http://de.dbpedia.org/resource/Europa","@support":"22769","@types":"Schema:Place,DBpedia:Place,DBpedia:Location","@surfaceForm":"Europa","@offset":"56","@similarityScore":"0.9999971279833377","@percentageOfSecondRank":"2.307885950374468E-6"},{"@URI":"http://de.dbpedia.org/resource/Datensatz","@support":"290","@types":"","@surfaceForm":"Datensatz","@offset":"235","@similarityScore":"0.9999999999988631","@percentageOfSecondRank":"0.0"},{"@URI":"http://de.dbpedia.org/resource/Methodenvalidierung","@support":"37","@types":"","@surfaceForm":"Validierung","@offset":"249","@similarityScore":"0.9951822608261318","@percentageOfSecondRank":"0.0029465029877146893"},{"@URI":"http://de.dbpedia.org/resource/Centers_for_Disease_Control_and_Prevention","@support":"273","@types":"Wikidata:Q43229,Wikidata:Q24229398,DUL:SocialPerson,DUL:Agent,Schema:Organization,DBpedia:Organisation,DBpedia:Agent","@surfaceForm":"CDC","@offset":"451","@similarityScore":"0.9616970894513301","@percentageOfSecondRank":"0.03879147280407516"}]}, "uris": [
  {
    "dbpedia": "http://de.dbpedia.org/resource/Windgeschwindigkeit",
    "wikidata": "http://www.wikidata.org/entity/Q1464943",
    "gnd": "4189937-4",
    "gndLabel": "Windgeschwindigkeit"
  },
  {
    "dbpedia": "http://de.dbpedia.org/resource/Europa",
    "wikidata": "http://www.wikidata.org/entity/Q46",
    "gnd": "4015701-5",
    "gndLabel": "Europa"
  },
  {
    "dbpedia": "http://de.dbpedia.org/resource/Datensatz",
    "wikidata": "http://www.wikidata.org/entity/Q1366302",
    "gnd": "4011133-7",
    "gndLabel": "Datensatz"
  },
  {
    "dbpedia": "http://de.dbpedia.org/resource/Methodenvalidierung",
    "wikidata": "http://www.wikidata.org/entity/Q1749344",
    "gnd": "4187357-9",
    "gndLabel": "Validierung"
  }
] }
