{ "URL" : "https://metadata.limbo-project.org/dataset-Stuendliche-Raster-der-Windrichtung-fuer-Deutschland-Projekt-TRY-Weiterentwicklung--463406205", "spotlight" : {"@text":"\"Stündliche Raster der Windrichtung für Deutschland (Projekt TRY-Weiterentwicklung)\\n\\nEs handelt sich dabei um die Rohdaten die als Input zur Erstellung der Deutschen Testreferenzjahre (2017) verwendet wurden. Das Ressortforschungsprojekt „TRYWeiterentwicklung“ wurde über die Forschungsinitiative Zukunft Bau durch das BBSR finanziert. Weitere Informationen: https://opendata.dwd.de/climate_environment/CDC/grids_germany/hourly/Project_TRY/wind_direction/BESCHREIBUNG_gridsgermany_hourly_Project_TRY_wind_direction_de.pdf\"","@confidence":"0.5","@support":"0","@types":"","@sparql":"","@policy":"whitelist","Resources":[{"@URI":"http://de.dbpedia.org/resource/Rastergrafik","@support":"349","@types":"Wikidata:Q386724,Schema:CreativeWork,DBpedia:WrittenWork,DBpedia:Work","@surfaceForm":"Raster","@offset":"12","@similarityScore":"0.9988293523109946","@percentageOfSecondRank":"4.985568344216906E-4"},{"@URI":"http://de.dbpedia.org/resource/Windrichtung","@support":"183","@types":"","@surfaceForm":"Windrichtung","@offset":"23","@similarityScore":"0.9999999780639544","@percentageOfSecondRank":"0.0"},{"@URI":"http://de.dbpedia.org/resource/Deutschland","@support":"172968","@types":"Wikidata:Q6256,Schema:Place,Schema:Country,DBpedia:PopulatedPlace,DBpedia:Place,DBpedia:Location,DBpedia:Country","@surfaceForm":"Deutschland","@offset":"40","@similarityScore":"0.9999675389057554","@percentageOfSecondRank":"1.3396155591875845E-5"},{"@URI":"http://de.dbpedia.org/resource/Nintendo_Entertainment_System","@support":"603","@types":"","@surfaceForm":"nEs","@offset":"86","@similarityScore":"0.9999883788917102","@percentageOfSecondRank":"1.1534665844986498E-5"},{"@URI":"http://de.dbpedia.org/resource/Rohdatenformat_(Fotografie)","@support":"219","@types":"","@surfaceForm":"Rohdaten","@offset":"116","@similarityScore":"0.9999983893580303","@percentageOfSecondRank":"1.5942808772023211E-6"},{"@URI":"http://de.dbpedia.org/resource/Bundesamt_für_Bauwesen_und_Raumordnung","@support":"304","@types":"Wikidata:Q43229,Wikidata:Q24229398,DUL:SocialPerson,DUL:Agent,Schema:Organization,DBpedia:Organisation,DBpedia:Agent","@surfaceForm":"BBSR","@offset":"321","@similarityScore":"0.9967466592874116","@percentageOfSecondRank":"0.0"},{"@URI":"http://de.dbpedia.org/resource/Centers_for_Disease_Control_and_Prevention","@support":"273","@types":"Wikidata:Q43229,Wikidata:Q24229398,DUL:SocialPerson,DUL:Agent,Schema:Organization,DBpedia:Organisation,DBpedia:Agent","@surfaceForm":"CDC","@offset":"405","@similarityScore":"0.941998803682999","@percentageOfSecondRank":"0.059839767785148004"}]}, "uris": [
  {
    "dbpedia": "http://de.dbpedia.org/resource/Rastergrafik",
    "wikidata": "http://www.wikidata.org/entity/Q182270",
    "gnd": "4176991-0",
    "gndLabel": "Raster"
  },
  {
    "dbpedia": "http://de.dbpedia.org/resource/Windrichtung",
    "wikidata": "http://www.wikidata.org/entity/Q1057900",
    "gnd": "4189949-0",
    "gndLabel": "Windrichtung"
  },
  {
    "dbpedia": "http://de.dbpedia.org/resource/Deutschland",
    "wikidata": "http://www.wikidata.org/entity/Q183",
    "gnd": "4011882-4",
    "gndLabel": "Deutschland"
  },
  {
    "dbpedia": "http://de.dbpedia.org/resource/Nintendo_Entertainment_System",
    "wikidata": "http://www.wikidata.org/entity/Q172742",
    "gnd": "4518195-0",
    "gndLabel": "NES-Konsole"
  },
  {
    "dbpedia": "http://de.dbpedia.org/resource/Rohdatenformat_(Fotografie)",
    "wikidata": "null",
    "gnd": "4875810-3",
    "gndLabel": "Rohdaten"
  }
] }
