{ "URL" : "https://metadata.limbo-project.org/dataset-Passantenzaehlung-Berlin-Auszug-1940547587", "spotlight" : {"@text":"\"Passantenzählung Berlin – Auszug\\n\\nDie im Rahmen des Smarttop Projektes gezählten Passantenströme an fünf Standorten in Berlin mFUND-Projekt: Smarttop, FKZ: 19F1019A\"","@confidence":"0.5","@support":"0","@types":"","@sparql":"","@policy":"whitelist","Resources":[{"@URI":"http://de.dbpedia.org/resource/Berlin","@support":"292924","@types":"Schema:Place,DBpedia:Place,DBpedia:Location","@surfaceForm":"Berlin","@offset":"18","@similarityScore":"0.9940875115474244","@percentageOfSecondRank":"0.005891709873587881"},{"@URI":"http://de.dbpedia.org/resource/Berlin","@support":"292924","@types":"Schema:Place,DBpedia:Place,DBpedia:Location","@surfaceForm":"Berlin","@offset":"122","@similarityScore":"0.9940875115474244","@percentageOfSecondRank":"0.005891709873587881"}]}, "uris": [
  {
    "dbpedia": "http://de.dbpedia.org/resource/Berlin",
    "wikidata": "http://www.wikidata.org/entity/Q64",
    "gnd": "4005728-8",
    "gndLabel": "Berlin"
  }
] }
