{ "URL" : "https://metadata.limbo-project.org/dataset-Berlin-Strat-Laermkarte-L-N-Nacht-Index-Strassen-/U-Bahnverkehr-2017-UA-199231312", "spotlight" : {"@text":"\"Berlin: Strat. Lärmkarte L_N (Nacht-Index) Straßen-/U-Bahnverkehr 2017 (UA)\\n\\nDie Strategischen Lärmkarten 2017 geben Auskunft über die Lärmbelastung im Einwirkbereich von Hauptlärmquellen. Sie sind eine Fortführung der Strategischen Lärmkarten 2012.\"","@confidence":"0.5","@support":"0","@types":"","@sparql":"","@policy":"whitelist","Resources":[{"@URI":"http://de.dbpedia.org/resource/Berlin","@support":"292924","@types":"Schema:Place,DBpedia:Place,DBpedia:Location","@surfaceForm":"Berlin","@offset":"1","@similarityScore":"0.9979376362692154","@percentageOfSecondRank":"0.0020347139531128166"},{"@URI":"http://de.dbpedia.org/resource/Fender_Stratocaster","@support":"333","@types":"","@surfaceForm":"Strat","@offset":"9","@similarityScore":"0.9999845942814234","@percentageOfSecondRank":"0.0"},{"@URI":"http://de.dbpedia.org/resource/Lärmkarte","@support":"12","@types":"","@surfaceForm":"Lärmkarte","@offset":"16","@similarityScore":"0.9999999991080699","@percentageOfSecondRank":"0.0"},{"@URI":"http://de.dbpedia.org/resource/Uraufführung","@support":"6957","@types":"","@surfaceForm":"UA","@offset":"73","@similarityScore":"0.9991469047404331","@percentageOfSecondRank":"4.076164212349825E-4"}]}, "uris": [
  {
    "dbpedia": "http://de.dbpedia.org/resource/Berlin",
    "wikidata": "http://www.wikidata.org/entity/Q64",
    "gnd": "4005728-8",
    "gndLabel": "Berlin"
  },
  {
    "dbpedia": "http://de.dbpedia.org/resource/Fender_Stratocaster",
    "wikidata": "http://www.wikidata.org/entity/Q208173",
    "gnd": "4800359-1",
    "gndLabel": "Fender Stratocaster"
  }
] }
