{ "URL" : "https://metadata.limbo-project.org/dataset-Stadt-Bonn-Kennzahlen-zur-Stadtenwaesserung-2014--860702512", "spotlight" : {"@text":"\"Stadt Bonn: Kennzahlen zur Stadtenwässerung 2014\\n\\nKennzahlen zum Bonner Gewässer, Kanalnetz und Kläranlagen sowie das Betriebsergebnis für den Bereich der Stadtentwässerung.\"","@confidence":"0.5","@support":"0","@types":"","@sparql":"","@policy":"whitelist","Resources":[{"@URI":"http://de.dbpedia.org/resource/Bonn","@support":"32453","@types":"Wikidata:Q486972,Schema:Place,DBpedia:Settlement,DBpedia:PopulatedPlace,DBpedia:Place,DBpedia:Location","@surfaceForm":"Bonn","@offset":"7","@similarityScore":"0.9998440564568255","@percentageOfSecondRank":"1.3189499366990118E-4"},{"@URI":"http://de.dbpedia.org/resource/Kanalisation","@support":"890","@types":"","@surfaceForm":"Kanalnetz","@offset":"85","@similarityScore":"0.9998891645954003","@percentageOfSecondRank":"1.1084728743214839E-4"},{"@URI":"http://de.dbpedia.org/resource/Betriebsergebnis","@support":"90","@types":"","@surfaceForm":"Betriebsergebnis","@offset":"121","@similarityScore":"0.9999999994555822","@percentageOfSecondRank":"0.0"},{"@URI":"http://de.dbpedia.org/resource/Abwasser","@support":"1212","@types":"","@surfaceForm":"Stadtentwässerung","@offset":"158","@similarityScore":"0.747876339786098","@percentageOfSecondRank":"0.3371194496899896"}]}, "uris": [
  {
    "dbpedia": "http://de.dbpedia.org/resource/Bonn",
    "wikidata": "http://www.wikidata.org/entity/Q586",
    "gnd": "4007666-0",
    "gndLabel": "Bonn"
  },
  {
    "dbpedia": "http://de.dbpedia.org/resource/Kanalisation",
    "wikidata": "http://www.wikidata.org/entity/Q156849",
    "gnd": "4029466-3",
    "gndLabel": "Kanalisation"
  },
  {
    "dbpedia": "http://de.dbpedia.org/resource/Betriebsergebnis",
    "wikidata": "http://www.wikidata.org/entity/Q831866",
    "gnd": "4145040-1",
    "gndLabel": "Betriebsergebnis"
  },
  {
    "dbpedia": "http://de.dbpedia.org/resource/Abwasser",
    "wikidata": "http://www.wikidata.org/entity/Q336191",
    "gnd": "4000302-4",
    "gndLabel": "Abwasser"
  }
] }
