{ "URL" : "https://metadata.limbo-project.org/dataset-BFO-O-2013-Datensaetze-577925686", "spotlight" : {"@text":"\"BFO-O 2013 Datensätze\\n\\nPlanung der Netzanbindungen für Offshore Windparks in der deutschen AWZ der Ostsee 2013 (öffentliche Fachplanung)\"","@confidence":"0.5","@support":"0","@types":"","@sparql":"","@policy":"whitelist","Resources":[{"@URI":"http://de.dbpedia.org/resource/Offshore-Windpark","@support":"515","@types":"","@surfaceForm":"Offshore","@offset":"58","@similarityScore":"0.999889057106582","@percentageOfSecondRank":"1.0014931510861808E-4"},{"@URI":"http://de.dbpedia.org/resource/Automobilwerk_Zwickau","@support":"33","@types":"","@surfaceForm":"AWZ","@offset":"94","@similarityScore":"0.9937745068490356","@percentageOfSecondRank":"0.006242893219346086"},{"@URI":"http://de.dbpedia.org/resource/Ostsee","@support":"7694","@types":"Schema:Place,DBpedia:Place,DBpedia:Location","@surfaceForm":"Ostsee","@offset":"102","@similarityScore":"0.999999999859142","@percentageOfSecondRank":"6.534696419060177E-11"},{"@URI":"http://de.dbpedia.org/resource/Fachplanung","@support":"46","@types":"Wikidata:Q386724,Schema:CreativeWork,DBpedia:WrittenWork,DBpedia:Work","@surfaceForm":"Fachplanung","@offset":"127","@similarityScore":"0.9999999721752605","@percentageOfSecondRank":"0.0"}]}, "uris": [
  {
    "dbpedia": "http://de.dbpedia.org/resource/Offshore-Windpark",
    "wikidata": "null",
    "gnd": "110703549X",
    "gndLabel": "Offshore"
  },
  {
    "dbpedia": "http://de.dbpedia.org/resource/Automobilwerk_Zwickau",
    "wikidata": "http://www.wikidata.org/entity/Q459115",
    "gnd": "2068124-0",
    "gndLabel": "Sachsenring-Automobilwerke"
  },
  {
    "dbpedia": "http://de.dbpedia.org/resource/Ostsee",
    "wikidata": "http://www.wikidata.org/entity/Q545",
    "gnd": "4044107-6",
    "gndLabel": "Ostsee"
  },
  {
    "dbpedia": "http://de.dbpedia.org/resource/Fachplanung",
    "wikidata": "http://www.wikidata.org/entity/Q1391444",
    "gnd": "4153496-7",
    "gndLabel": "Fachplanung"
  }
] }
