{ "URL" : "https://metadata.limbo-project.org/dataset-Anteil-Strassenverkehrsflaeche-an-Siedlungs-und-Verkehrsflaeche--836581388", "spotlight" : {"@text":"\"Anteil Straßenverkehrsfläche an Siedlungs- und Verkehrsfläche\\n\\nKategorie: Verkehr Maßeinheit: % Kurzbeschreibung: Straßenverkehrsfläche: Fläche des gesamten Verkehrsnetzes für den Kraftverkehr (klassifizierte und nicht klassifizierte Straßen, Plätze sowie Hauptwirtschaftswege) Siedlungs- und Verkehrsfläche: Baulich geprägte Siedlungsfläche, Siedlungsfreifläche und Verkehrsfläche abzüglich Wasserfläche Bedeutung und Interpretation: Der Indikator beschreibt den Flächenanteil des gesamten Verkehrsnetzes für den Kraftverkehr (klassifizierte und nicht klassifizierte Straßen, Plätze sowie Hauptwirtschaftswege) am Siedlungs- und Verkehrsraum. (Achtung: Die Werte beziehen sich nur auf eine Teilgebietsfläche!) Datengrundlagen: ATKIS Basis-DLM, BKG Methodik: Quotient aus der Vereinigungsmenge von Straßen (gepuffert), Hauptwirtschaftswegen (gepuffert), Plätzen sowie Raststätten einerseits und der Vereinigungsmenge aller baulich geprägten Siedlungsflächen, Siedlungsfreiflächen und Verkehrsflächen abzüglich Wasserflächen andererseits Verweise: - Straßenfläche - Siedlungs- und Verkehrsfläche Bemerkungen: Zur Ermittlung der Verkehrsfläche müssen linienhaft modellierte Straßen- und Schienenverkehrstrassen mit entsprechender Breitenangabe gepuffert werden. Baulich geprägte Siedlungsflächen können sich sowohl innerhalb als auch außerhalb von Ortslagen befinden.\"","@confidence":"0.5","@support":"0","@types":"","@sparql":"","@policy":"whitelist","Resources":[{"@URI":"http://de.dbpedia.org/resource/Verkehrszweig","@support":"52","@types":"","@surfaceForm":"Verkehrsfläche","@offset":"48","@similarityScore":"0.9999999999977263","@percentageOfSecondRank":"2.2756532840409142E-12"},{"@URI":"http://de.dbpedia.org/resource/Internationales_Einheitensystem","@support":"948","@types":"","@surfaceForm":"Maßeinheit","@offset":"85","@similarityScore":"0.9999999660831241","@percentageOfSecondRank":"3.3884787193253945E-8"},{"@URI":"http://de.dbpedia.org/resource/Kraftfahrzeug","@support":"1518","@types":"","@surfaceForm":"Kraftverkehr","@offset":"183","@similarityScore":"0.7863164472890664","@percentageOfSecondRank":"0.27175261747055945"},{"@URI":"http://de.dbpedia.org/resource/Verkehrszweig","@support":"52","@types":"","@surfaceForm":"Verkehrsfläche","@offset":"296","@similarityScore":"0.9999999999977263","@percentageOfSecondRank":"2.2756532840409142E-12"},{"@URI":"http://de.dbpedia.org/resource/Verkehrszweig","@support":"52","@types":"","@surfaceForm":"Verkehrsfläche","@offset":"370","@similarityScore":"0.9999999999977263","@percentageOfSecondRank":"2.2756532840409142E-12"},{"@URI":"http://de.dbpedia.org/resource/Umweltindikator","@support":"27","@types":"","@surfaceForm":"Indikator","@offset":"442","@similarityScore":"0.9998600301200514","@percentageOfSecondRank":"1.399840383802327E-4"},{"@URI":"http://de.dbpedia.org/resource/Kraftfahrzeug","@support":"1518","@types":"","@surfaceForm":"Kraftverkehr","@offset":"517","@similarityScore":"0.7863164472890664","@percentageOfSecondRank":"0.27175261747055945"},{"@URI":"http://de.dbpedia.org/resource/Verkehrsraum","@support":"32","@types":"","@surfaceForm":"Verkehrsraum","@offset":"633","@similarityScore":"1.0","@percentageOfSecondRank":"0.0"},{"@URI":"http://de.dbpedia.org/resource/Amtliches_Topographisch-Kartographisches_Informationssystem","@support":"62","@types":"","@surfaceForm":"ATKIS","@offset":"731","@similarityScore":"1.0","@percentageOfSecondRank":"0.0"},{"@URI":"http://de.dbpedia.org/resource/Bundesamt_für_Kartographie_und_Geodäsie","@support":"149","@types":"Wikidata:Q43229,Wikidata:Q24229398,DUL:SocialPerson,DUL:Agent,Schema:Organization,DBpedia:Organisation,DBpedia:Agent","@surfaceForm":"BKG","@offset":"748","@similarityScore":"0.9999999996670113","@percentageOfSecondRank":"0.0"},{"@URI":"http://de.dbpedia.org/resource/Quotient","@support":"367","@types":"","@surfaceForm":"Quotient","@offset":"762","@similarityScore":"0.9999988638496321","@percentageOfSecondRank":"1.1353270043270492E-6"},{"@URI":"http://de.dbpedia.org/resource/Mengenlehre","@support":"1146","@types":"Wikidata:Q386724,Schema:CreativeWork,DBpedia:WrittenWork,DBpedia:Work","@surfaceForm":"Vereinigungsmenge","@offset":"779","@similarityScore":"0.9992908650463345","@percentageOfSecondRank":"7.09350672250942E-4"},{"@URI":"http://de.dbpedia.org/resource/Puffer_(Chemie)","@support":"226","@types":"","@surfaceForm":"gepuffert","@offset":"810","@similarityScore":"0.79103067742186","@percentageOfSecondRank":"0.25790139064478057"},{"@URI":"http://de.dbpedia.org/resource/Puffer_(Chemie)","@support":"226","@types":"","@surfaceForm":"gepuffert","@offset":"845","@similarityScore":"0.79103067742186","@percentageOfSecondRank":"0.25790139064478057"},{"@URI":"http://de.dbpedia.org/resource/Autobahnraststätte","@support":"257","@types":"","@surfaceForm":"Raststätten","@offset":"871","@similarityScore":"0.9961539786265298","@percentageOfSecondRank":"0.0"},{"@URI":"http://de.dbpedia.org/resource/Mengenlehre","@support":"1146","@types":"Wikidata:Q386724,Schema:CreativeWork,DBpedia:WrittenWork,DBpedia:Work","@surfaceForm":"Vereinigungsmenge","@offset":"902","@similarityScore":"0.9992908650463345","@percentageOfSecondRank":"7.09350672250942E-4"},{"@URI":"http://de.dbpedia.org/resource/Verkehrszweig","@support":"52","@types":"","@surfaceForm":"Verkehrsfläche","@offset":"1083","@similarityScore":"0.9999999999977263","@percentageOfSecondRank":"2.2756532840409142E-12"},{"@URI":"http://de.dbpedia.org/resource/Verkehrszweig","@support":"52","@types":"","@surfaceForm":"Verkehrsfläche","@offset":"1130","@similarityScore":"0.9999999999977263","@percentageOfSecondRank":"2.2756532840409142E-12"},{"@URI":"http://de.dbpedia.org/resource/Puffer_(Chemie)","@support":"226","@types":"","@surfaceForm":"gepuffert","@offset":"1245","@similarityScore":"0.79103067742186","@percentageOfSecondRank":"0.25790139064478057"}]}, "uris": [
  {
    "dbpedia": "http://de.dbpedia.org/resource/Verkehrszweig",
    "wikidata": "http://www.wikidata.org/entity/Q1412103",
    "gnd": "4187808-5",
    "gndLabel": "Verkehrsfläche"
  },
  {
    "dbpedia": "http://de.dbpedia.org/resource/Internationales_Einheitensystem",
    "wikidata": "http://www.wikidata.org/entity/Q12457",
    "gnd": "4077436-3",
    "gndLabel": "SI-Einheiten"
  },
  {
    "dbpedia": "http://de.dbpedia.org/resource/Kraftfahrzeug",
    "wikidata": "http://www.wikidata.org/entity/Q752870",
    "gnd": "4073757-3",
    "gndLabel": "Kraftfahrzeug"
  },
  {
    "dbpedia": "http://de.dbpedia.org/resource/Umweltindikator",
    "wikidata": "http://www.wikidata.org/entity/Q1520022",
    "gnd": "4201889-4",
    "gndLabel": "Umweltindikator"
  },
  {
    "dbpedia": "http://de.dbpedia.org/resource/Verkehrsraum",
    "wikidata": "http://de.dbpedia.org/resource/Verkehrsraum",
    "gnd": "4267585-6",
    "gndLabel": "Verkehrsraum"
  },
  {
    "dbpedia": "http://de.dbpedia.org/resource/Amtliches_Topographisch-Kartographisches_Informationssystem",
    "wikidata": "http://www.wikidata.org/entity/Q480256",
    "gnd": "4392682-4",
    "gndLabel": "ATKIS"
  },
  {
    "dbpedia": "http://de.dbpedia.org/resource/Quotient",
    "wikidata": "http://www.wikidata.org/entity/Q13107493",
    "gnd": "4312649-2",
    "gndLabel": "Quotient"
  },
  {
    "dbpedia": "http://de.dbpedia.org/resource/Mengenlehre",
    "wikidata": "http://www.wikidata.org/entity/Q12482",
    "gnd": "4074715-3",
    "gndLabel": "Mengenlehre"
  }
] }
