{ "URL" : "https://metadata.limbo-project.org/dataset-Kuesten-Gazetteer-860132389", "spotlight" : {"@text":"\"Küsten-Gazetteer\\n\\nSeit dem 01.03.2017 ist der Küsten-Gazetteer der geographischen Namen in den deutschen Küstengewässern und angrenzenden Regionen als WMS mit zwei Layern für Orts-Geometrien und Orts-Namen (Label) in die MDI-DE integriert. Dieser Dienst beinhaltet die zeitlichen Veränderungen von Strukturen im Wattenmeer, die in Kartenwerken dokumentiert sind (Historienverwaltung) und die unterschiedliche Namensgebung in den örtlichen Sprachen (Mehrsprachigkeit). Sämtliche Einträge sind bibliographisch nachgewiesen. Dabei sind die Karten vom StAGN ebenso berücksichtigt, wie die in der WSV gebräuchlichen Bezeichnungen. Mit diesen Alleinstellungsmerkmalen geht der Küsten-Gazetteer über die Informationen, die vom Gazetteer des BKG verfügbar sind, hinaus. Seine Pflege und Aktualisierung ist als daueraufgabe in der MDI-DE verankert. Der Dienst wird als Web Map Servive (WMS) von dem Geoserver der Bundesanstalt für Wasserbau, in Form von Layern im Fachportal MDI-DE publiziert.MDI-DE\"","@confidence":"0.5","@support":"0","@types":"","@sparql":"","@policy":"whitelist","Resources":[{"@URI":"http://de.dbpedia.org/resource/Web_Map_Service","@support":"65","@types":"","@surfaceForm":"WMS","@offset":"154","@similarityScore":"1.0","@percentageOfSecondRank":"6.305362050007103E-19"},{"@URI":"http://de.dbpedia.org/resource/Wattenmeer","@support":"966","@types":"","@surfaceForm":"Wattenmeer","@offset":"315","@similarityScore":"0.9999999982271675","@percentageOfSecondRank":"1.6470605677790334E-9"},{"@URI":"http://de.dbpedia.org/resource/Mehrsprachigkeit","@support":"206","@types":"Wikidata:Q386724,Schema:CreativeWork,DBpedia:WrittenWork,DBpedia:Work","@surfaceForm":"Mehrsprachigkeit","@offset":"452","@similarityScore":"0.9999999999984084","@percentageOfSecondRank":"0.0"},{"@URI":"http://de.dbpedia.org/resource/Ständiger_Ausschuss_für_geographische_Namen","@support":"99","@types":"","@surfaceForm":"StAGN","@offset":"551","@similarityScore":"0.9900767934906171","@percentageOfSecondRank":"0.0"},{"@URI":"http://de.dbpedia.org/resource/Wuppertaler_SV","@support":"889","@types":"Wikidata:Q476028,Wikidata:Q43229,Wikidata:Q24229398,DUL:SocialPerson,DUL:Agent,Schema:SportsTeam,Schema:Organization,DBpedia:SportsTeam,DBpedia:SoccerClub,DBpedia:Organisation,DBpedia:Agent","@surfaceForm":"WSV","@offset":"595","@similarityScore":"0.9999872740637861","@percentageOfSecondRank":"1.2599286083222733E-5"},{"@URI":"http://de.dbpedia.org/resource/Ortslexikon","@support":"33","@types":"Wikidata:Q386724,Schema:CreativeWork,DBpedia:WrittenWork,DBpedia:Work","@surfaceForm":"Gazetteer","@offset":"723","@similarityScore":"0.9999999999835154","@percentageOfSecondRank":"0.0"},{"@URI":"http://de.dbpedia.org/resource/Bundesamt_für_Kartographie_und_Geodäsie","@support":"149","@types":"Wikidata:Q43229,Wikidata:Q24229398,DUL:SocialPerson,DUL:Agent,Schema:Organization,DBpedia:Organisation,DBpedia:Agent","@surfaceForm":"BKG","@offset":"737","@similarityScore":"0.991199007124656","@percentageOfSecondRank":"0.0"},{"@URI":"http://de.dbpedia.org/resource/Web_Map_Service","@support":"65","@types":"","@surfaceForm":"WMS","@offset":"880","@similarityScore":"1.0","@percentageOfSecondRank":"6.305362050007103E-19"},{"@URI":"http://de.dbpedia.org/resource/GeoServer","@support":"20","@types":"Wikidata:Q7397,Wikidata:Q386724,Schema:CreativeWork,DBpedia:Work,DBpedia:Software","@surfaceForm":"Geoserver","@offset":"893","@similarityScore":"0.9999998984042173","@percentageOfSecondRank":"0.0"},{"@URI":"http://de.dbpedia.org/resource/Wasserbau","@support":"691","@types":"","@surfaceForm":"Wasserbau","@offset":"925","@similarityScore":"1.0","@percentageOfSecondRank":"0.0"}]}, "uris": [
  {
    "dbpedia": "http://de.dbpedia.org/resource/Mehrsprachigkeit",
    "wikidata": "http://www.wikidata.org/entity/Q30081",
    "gnd": "4038403-2",
    "gndLabel": "Mehrsprachigkeit"
  },
  {
    "dbpedia": "http://de.dbpedia.org/resource/Wuppertaler_SV",
    "wikidata": "http://www.wikidata.org/entity/Q170157",
    "gnd": "10081783-X",
    "gndLabel": "Wuppertaler Sportverein"
  },
  {
    "dbpedia": "http://de.dbpedia.org/resource/GeoServer",
    "wikidata": "http://www.wikidata.org/entity/Q1502779",
    "gnd": "7735815-6",
    "gndLabel": "GeoServer"
  },
  {
    "dbpedia": "http://de.dbpedia.org/resource/Wasserbau",
    "wikidata": "http://www.wikidata.org/entity/Q1130265",
    "gnd": "4064700-6",
    "gndLabel": "Wasserbau"
  }
] }
