{ "URL" : "https://metadata.limbo-project.org/dataset-Urbane-Raeume-Lufttemperatur-und-Luftfeuchte-stuendlich--1572743851", "spotlight" : {"@text":"\"Urbane Räume: Lufttemperatur und Luftfeuchte stündlich\\n\\nAktuelle stündliche Lufttemperatur und Luftfeuchte, gemessen an Stadtklimastationen, für ausgewählte urbane Räume in Deutschland\"","@confidence":"0.5","@support":"0","@types":"","@sparql":"","@policy":"whitelist","Resources":[{"@URI":"http://de.dbpedia.org/resource/Lufttemperatur","@support":"281","@types":"","@surfaceForm":"Lufttemperatur","@offset":"15","@similarityScore":"0.9991146908211359","@percentageOfSecondRank":"8.860936324519584E-4"},{"@URI":"http://de.dbpedia.org/resource/Luftfeuchtigkeit","@support":"1276","@types":"","@surfaceForm":"Luftfeuchte","@offset":"34","@similarityScore":"0.9999999999563158","@percentageOfSecondRank":"0.0"},{"@URI":"http://de.dbpedia.org/resource/Lufttemperatur","@support":"281","@types":"","@surfaceForm":"Lufttemperatur","@offset":"79","@similarityScore":"0.9991146908211359","@percentageOfSecondRank":"8.860936324519584E-4"},{"@URI":"http://de.dbpedia.org/resource/Luftfeuchtigkeit","@support":"1276","@types":"","@surfaceForm":"Luftfeuchte","@offset":"98","@similarityScore":"0.9999999999563158","@percentageOfSecondRank":"0.0"},{"@URI":"http://de.dbpedia.org/resource/Deutschland","@support":"172968","@types":"Wikidata:Q6256,Schema:Place,Schema:Country,DBpedia:PopulatedPlace,DBpedia:Place,DBpedia:Location,DBpedia:Country","@surfaceForm":"Deutschland","@offset":"176","@similarityScore":"0.9997023665833223","@percentageOfSecondRank":"1.0065698359835038E-4"}]}, "uris": [
  {
    "dbpedia": "http://de.dbpedia.org/resource/Lufttemperatur",
    "wikidata": "http://www.wikidata.org/entity/Q1939789",
    "gnd": "4168286-5",
    "gndLabel": "Lufttemperatur"
  },
  {
    "dbpedia": "http://de.dbpedia.org/resource/Luftfeuchtigkeit",
    "wikidata": "http://www.wikidata.org/entity/Q180600",
    "gnd": "4125789-3",
    "gndLabel": "Luftfeuchtigkeit"
  },
  {
    "dbpedia": "http://de.dbpedia.org/resource/Deutschland",
    "wikidata": "http://www.wikidata.org/entity/Q183",
    "gnd": "4011882-4",
    "gndLabel": "Deutschland"
  }
] }
