{ "URL" : "https://metadata.limbo-project.org/dataset-Jahresmittel-der-Raster-der-monatlich-gemittelten-Lufttemperaturmaxima-2m-fuer-Deutschland-2004292557", "spotlight" : {"@text":"\"Jahresmittel der Raster der monatlich gemittelten Lufttemperaturmaxima (2m) für Deutschland\\n\\nDie Raster wurden aus Daten der DWD-Stationen und qualitativ gleichgestellten Partnernetzstationen in Deutschland abgeleitet, unter Berücksichtigung der Höhenabhängigkeiten. Weitere Informationen: https://opendata.dwd.de/climate_environment/CDC/grids_germany/annual/air_temperature_max/BESCHREIBUNG_gridsgermany_annual_air_temperature_max_de.pdf\"","@confidence":"0.5","@support":"0","@types":"","@sparql":"","@policy":"whitelist","Resources":[{"@URI":"http://de.dbpedia.org/resource/Jahresmittel","@support":"82","@types":"","@surfaceForm":"Jahresmittel","@offset":"1","@similarityScore":"0.9816209371558857","@percentageOfSecondRank":"0.01872315495403325"},{"@URI":"http://de.dbpedia.org/resource/Rastergrafik","@support":"349","@types":"Wikidata:Q386724,Schema:CreativeWork,DBpedia:WrittenWork,DBpedia:Work","@surfaceForm":"Raster","@offset":"18","@similarityScore":"0.9028967151656284","@percentageOfSecondRank":"0.07194684436184488"},{"@URI":"http://de.dbpedia.org/resource/Deutschland","@support":"172968","@types":"Wikidata:Q6256,Schema:Place,Schema:Country,DBpedia:PopulatedPlace,DBpedia:Place,DBpedia:Location,DBpedia:Country","@surfaceForm":"Deutschland","@offset":"81","@similarityScore":"0.9998584847464353","@percentageOfSecondRank":"4.2336364248890194E-5"},{"@URI":"http://de.dbpedia.org/resource/Rastergrafik","@support":"349","@types":"Wikidata:Q386724,Schema:CreativeWork,DBpedia:WrittenWork,DBpedia:Work","@surfaceForm":"Raster","@offset":"100","@similarityScore":"0.9028967151656284","@percentageOfSecondRank":"0.07194684436184488"},{"@URI":"http://de.dbpedia.org/resource/Deutschland","@support":"172968","@types":"Wikidata:Q6256,Schema:Place,Schema:Country,DBpedia:PopulatedPlace,DBpedia:Place,DBpedia:Location,DBpedia:Country","@surfaceForm":"Deutschland","@offset":"198","@similarityScore":"0.9998584847464353","@percentageOfSecondRank":"4.2336364248890194E-5"},{"@URI":"http://de.dbpedia.org/resource/Centers_for_Disease_Control_and_Prevention","@support":"273","@types":"Wikidata:Q43229,Wikidata:Q24229398,DUL:SocialPerson,DUL:Agent,Schema:Organization,DBpedia:Organisation,DBpedia:Agent","@surfaceForm":"CDC","@offset":"337","@similarityScore":"0.9868938035050548","@percentageOfSecondRank":"0.01311410480632926"}]}, "uris": [
  {
    "dbpedia": "http://de.dbpedia.org/resource/Rastergrafik",
    "wikidata": "http://www.wikidata.org/entity/Q182270",
    "gnd": "4176991-0",
    "gndLabel": "Raster"
  },
  {
    "dbpedia": "http://de.dbpedia.org/resource/Deutschland",
    "wikidata": "http://www.wikidata.org/entity/Q183",
    "gnd": "4011882-4",
    "gndLabel": "Deutschland"
  }
] }
