{ "URL" : "https://metadata.limbo-project.org/dataset-Stuendliche-Stationsmessungen-der-Erdbodentemperatur-in-20cm-Tiefe-in-C-380317967", "spotlight" : {"@text":"\"Stündliche Stationsmessungen der Erdbodentemperatur in 20cm Tiefe in °C\\n\\nDiese Daten stammen aus den Stationen des DWD (Partnernetze nicht enthalten). Umfangreiche Stationsmetadaten (Stationsverlegungen, Instrumentenwechsel, Wechsel der Bezugszeit, Änderungen in den Algorithmen) werden mitgeliefert. Bis zum Stichtag sind die Daten versioniert, für jüngere Daten ist die Qualitätskontrolle noch nicht abgeschlossen. Datensatzbeschreibung: https://cdc.dwd.de/sdi/pid/TE20_MN002/BESCHREIBUNG_TE20_MN002_de.pdf https://cdc.dwd.de/sdi/pid/TE20_MN002/ISO_TE20_MN002.xml\"","@confidence":"0.5","@support":"0","@types":"","@sparql":"","@policy":"whitelist","Resources":[{"@URI":"http://de.dbpedia.org/resource/Stammen","@support":"36","@types":"Wikidata:Q486972,Schema:Place,DBpedia:Settlement,DBpedia:PopulatedPlace,DBpedia:Place,DBpedia:Location","@surfaceForm":"stammen","@offset":"88","@similarityScore":"0.9998050581118357","@percentageOfSecondRank":"0.0"},{"@URI":"http://de.dbpedia.org/resource/Deutscher_Wetterdienst","@support":"889","@types":"Wikidata:Q43229,Wikidata:Q24229398,DUL:SocialPerson,DUL:Agent,Schema:Organization,DBpedia:Organisation,DBpedia:Agent","@surfaceForm":"DWD","@offset":"118","@similarityScore":"0.999999999257966","@percentageOfSecondRank":"0.0"},{"@URI":"http://de.dbpedia.org/resource/Algorithmus","@support":"3178","@types":"","@surfaceForm":"Algorithmen","@offset":"270","@similarityScore":"0.9999999961663661","@percentageOfSecondRank":"0.0"},{"@URI":"http://de.dbpedia.org/resource/Qualitätssicherung","@support":"999","@types":"","@surfaceForm":"Qualitätskontrolle","@offset":"375","@similarityScore":"0.9990077486203884","@percentageOfSecondRank":"0.0"},{"@URI":"http://de.dbpedia.org/resource/Strategic_Defense_Initiative","@support":"172","@types":"","@surfaceForm":"sdi","@offset":"462","@similarityScore":"0.9999991666254635","@percentageOfSecondRank":"0.0"},{"@URI":"http://de.dbpedia.org/resource/Process_identifier","@support":"46","@types":"","@surfaceForm":"pid","@offset":"466","@similarityScore":"0.9910438875632489","@percentageOfSecondRank":"0.009035124109286242"},{"@URI":"http://de.dbpedia.org/resource/Strategic_Defense_Initiative","@support":"172","@types":"","@surfaceForm":"sdi","@offset":"531","@similarityScore":"0.9999991666254635","@percentageOfSecondRank":"0.0"},{"@URI":"http://de.dbpedia.org/resource/Process_identifier","@support":"46","@types":"","@surfaceForm":"pid","@offset":"535","@similarityScore":"0.9910438875632489","@percentageOfSecondRank":"0.009035124109286242"}]}, "uris": [
  {
    "dbpedia": "http://de.dbpedia.org/resource/Deutscher_Wetterdienst",
    "wikidata": "http://www.wikidata.org/entity/Q325859",
    "gnd": "1012332-5",
    "gndLabel": "Deutscher Wetterdienst"
  },
  {
    "dbpedia": "http://de.dbpedia.org/resource/Algorithmus",
    "wikidata": "http://www.wikidata.org/entity/Q8366",
    "gnd": "4001183-5",
    "gndLabel": "Algorithmus"
  },
  {
    "dbpedia": "http://de.dbpedia.org/resource/Qualitätssicherung",
    "wikidata": "",
    "gnd": "4047968-7",
    "gndLabel": "Qualitätskontrolle"
  }
] }
