{ "URL" : "https://metadata.limbo-project.org/dataset-HVV-Haltestellennamen-mit-Koordinate-Hamburg--1022794044", "spotlight" : {"@text":"\"HVV-Haltestellennamen mit Koordinate (Hamburg)\\n\\nHaltestellennamen des HVV-Gesamtbereichs und der näheren Umgebung mit Angabe der Gauß-Krüger-Koordinate (GKK)\"","@confidence":"0.5","@support":"0","@types":"","@sparql":"","@policy":"whitelist","Resources":[{"@URI":"http://de.dbpedia.org/resource/Koordinatensystem","@support":"1367","@types":"","@surfaceForm":"Koordinate","@offset":"27","@similarityScore":"0.999999999645695","@percentageOfSecondRank":"0.0"},{"@URI":"http://de.dbpedia.org/resource/Hamburg","@support":"96522","@types":"Schema:Place,DBpedia:Place,DBpedia:Location","@surfaceForm":"Hamburg","@offset":"39","@similarityScore":"0.9999411261052641","@percentageOfSecondRank":"3.0156759629825775E-5"},{"@URI":"http://de.dbpedia.org/resource/Gauß-Krüger-Koordinatensystem","@support":"114","@types":"Wikidata:Q386724,Schema:CreativeWork,DBpedia:WrittenWork,DBpedia:Work","@surfaceForm":"Gauß-Krüger-Koordinate","@offset":"132","@similarityScore":"0.991371212078134","@percentageOfSecondRank":"0.0"},{"@URI":"http://de.dbpedia.org/resource/Gärtner-Krankenkasse","@support":"6","@types":"","@surfaceForm":"GKK","@offset":"156","@similarityScore":"0.7074963428311941","@percentageOfSecondRank":"0.0"}]}, "uris": [
  {
    "dbpedia": "http://de.dbpedia.org/resource/Koordinatensystem",
    "wikidata": "http://www.wikidata.org/entity/Q11210",
    "gnd": "4165251-4",
    "gndLabel": "Koordinaten"
  },
  {
    "dbpedia": "http://de.dbpedia.org/resource/Hamburg",
    "wikidata": "http://www.wikidata.org/entity/Q1055",
    "gnd": "4023118-5",
    "gndLabel": "Hamburg"
  }
] }
