{ "URL" : "https://metadata.limbo-project.org/dataset-Solarstrahlung-stuendlich-an-Klimastationen-565020559", "spotlight" : {"@text":"\"Solarstrahlung stündlich an Klimastationen\\n\\nStündliche Stationsmessungen der solaren Einstrahlung\"","@confidence":"0.5","@support":"0","@types":"","@sparql":"","@policy":"whitelist","Resources":[{"@URI":"http://de.dbpedia.org/resource/Sonnenstrahlung","@support":"775","@types":"","@surfaceForm":"Solarstrahlung","@offset":"1","@similarityScore":"0.9999999999572253","@percentageOfSecondRank":"0.0"},{"@URI":"http://de.dbpedia.org/resource/Wetterstation","@support":"474","@types":"","@surfaceForm":"Klimastationen","@offset":"29","@similarityScore":"0.9999999315035121","@percentageOfSecondRank":"0.0"},{"@URI":"http://de.dbpedia.org/resource/Sonnenstrahlung","@support":"775","@types":"","@surfaceForm":"solaren Einstrahlung","@offset":"80","@similarityScore":"1.0","@percentageOfSecondRank":"0.0"}]}, "uris": [
  {
    "dbpedia": "http://de.dbpedia.org/resource/Sonnenstrahlung",
    "wikidata": "http://www.wikidata.org/entity/Q17996169",
    "gnd": "4139254-1",
    "gndLabel": "Sonnenstrahlung"
  },
  {
    "dbpedia": "http://de.dbpedia.org/resource/Wetterstation",
    "wikidata": "http://www.wikidata.org/entity/Q190107",
    "gnd": "4305719-6",
    "gndLabel": "Meteorologische Station"
  }
] }
