{ "URL" : "https://metadata.limbo-project.org/dataset-Durchfahrtsbeschraenkungen-fuer-Dieselfahrzeuge-Hamburg--172758667", "spotlight" : {"@text":"\"Durchfahrtsbeschränkungen für Dieselfahrzeuge Hamburg\\n\\nDer Datensatz enthält die Straßenabschnitte in Hamburg, auf denen eine Durchfahrtsbeschränkung für Dieselfahrzeuge gilt sowie die zugehörigen von der Stadt empfohlenen Umfahrungsempfehlungen. Hierbei wird zwischen Beschränkungen für alle Dieselfahrzeuge bis einschließlich EURO 5 (Pkw) bzw. EURO V (Lkw) und Beschränkungen ausschließlich für Lkw (ebenfalls bis einschließlich EURO V) unterschieden. Die betroffenen Straßenabschnitte sind für Anlieger frei befahrbar und mit entsprechenden Verkehrszeichen angekündigt.\"","@confidence":"0.5","@support":"0","@types":"","@sparql":"","@policy":"whitelist","Resources":[{"@URI":"http://de.dbpedia.org/resource/Dieselmotor","@support":"3185","@types":"","@surfaceForm":"Dieselfahrzeuge","@offset":"31","@similarityScore":"0.9999999999883471","@percentageOfSecondRank":"0.0"},{"@URI":"http://de.dbpedia.org/resource/Hamburg","@support":"96522","@types":"Schema:Place,DBpedia:Place,DBpedia:Location","@surfaceForm":"Hamburg","@offset":"47","@similarityScore":"0.9946741272355341","@percentageOfSecondRank":"0.0024325893122129783"},{"@URI":"http://de.dbpedia.org/resource/Datensatz","@support":"290","@types":"","@surfaceForm":"Datensatz","@offset":"62","@similarityScore":"0.9999999997797886","@percentageOfSecondRank":"0.0"},{"@URI":"http://de.dbpedia.org/resource/Hamburg","@support":"96522","@types":"Schema:Place,DBpedia:Place,DBpedia:Location","@surfaceForm":"Hamburg","@offset":"105","@similarityScore":"0.9946741272355341","@percentageOfSecondRank":"0.0024325893122129783"},{"@URI":"http://de.dbpedia.org/resource/Dieselmotor","@support":"3185","@types":"","@surfaceForm":"Dieselfahrzeuge","@offset":"157","@similarityScore":"0.9999999999883471","@percentageOfSecondRank":"0.0"},{"@URI":"http://de.dbpedia.org/resource/Dieselmotor","@support":"3185","@types":"","@surfaceForm":"Dieselfahrzeuge","@offset":"296","@similarityScore":"0.9999999999883471","@percentageOfSecondRank":"0.0"},{"@URI":"http://de.dbpedia.org/resource/Abgasnorm","@support":"642","@types":"","@surfaceForm":"EURO 5","@offset":"331","@similarityScore":"1.0","@percentageOfSecondRank":"0.0"},{"@URI":"http://de.dbpedia.org/resource/Personenkraftwagen","@support":"2469","@types":"","@surfaceForm":"Pkw","@offset":"339","@similarityScore":"0.9999999843507227","@percentageOfSecondRank":"1.564926891339616E-8"},{"@URI":"http://de.dbpedia.org/resource/Abgasnorm","@support":"642","@types":"","@surfaceForm":"EURO V","@offset":"349","@similarityScore":"1.0","@percentageOfSecondRank":"0.0"},{"@URI":"http://de.dbpedia.org/resource/Lastkraftwagen","@support":"3779","@types":"","@surfaceForm":"Lkw","@offset":"357","@similarityScore":"1.0","@percentageOfSecondRank":"0.0"},{"@URI":"http://de.dbpedia.org/resource/Lastkraftwagen","@support":"3779","@types":"","@surfaceForm":"Lkw","@offset":"400","@similarityScore":"1.0","@percentageOfSecondRank":"0.0"},{"@URI":"http://de.dbpedia.org/resource/Abgasnorm","@support":"642","@types":"","@surfaceForm":"EURO V","@offset":"434","@similarityScore":"1.0","@percentageOfSecondRank":"0.0"},{"@URI":"http://de.dbpedia.org/resource/Anlieger","@support":"140","@types":"","@surfaceForm":"Anlieger frei","@offset":"500","@similarityScore":"1.0","@percentageOfSecondRank":"0.0"},{"@URI":"http://de.dbpedia.org/resource/Verkehrszeichen","@support":"645","@types":"","@surfaceForm":"Verkehrszeichen","@offset":"547","@similarityScore":"0.9999999999399733","@percentageOfSecondRank":"6.004618618194632E-11"}]}, "uris": [
  {
    "dbpedia": "http://de.dbpedia.org/resource/Dieselmotor",
    "wikidata": "http://www.wikidata.org/entity/Q174174",
    "gnd": "4012211-6",
    "gndLabel": "Dieselmotor"
  },
  {
    "dbpedia": "http://de.dbpedia.org/resource/Hamburg",
    "wikidata": "http://www.wikidata.org/entity/Q1055",
    "gnd": "4023118-5",
    "gndLabel": "Hamburg"
  },
  {
    "dbpedia": "http://de.dbpedia.org/resource/Datensatz",
    "wikidata": "http://www.wikidata.org/entity/Q1366302",
    "gnd": "4011133-7",
    "gndLabel": "Datensatz"
  },
  {
    "dbpedia": "http://de.dbpedia.org/resource/Personenkraftwagen",
    "wikidata": "http://www.wikidata.org/entity/Q1144312",
    "gnd": "4076001-7",
    "gndLabel": "Personenkraftwagen"
  },
  {
    "dbpedia": "http://de.dbpedia.org/resource/Lastkraftwagen",
    "wikidata": "http://www.wikidata.org/entity/Q43193",
    "gnd": "4034649-3",
    "gndLabel": "Lastkraftwagen"
  },
  {
    "dbpedia": "http://de.dbpedia.org/resource/Anlieger",
    "wikidata": "http://www.wikidata.org/entity/Q151740",
    "gnd": "4223176-0",
    "gndLabel": "Anlieger"
  },
  {
    "dbpedia": "http://de.dbpedia.org/resource/Verkehrszeichen",
    "wikidata": "null",
    "gnd": "4062994-6",
    "gndLabel": "Verkehrszeichen"
  }
] }
