{ "URL" : "https://metadata.limbo-project.org/dataset-Phaenologie-Jahresmelder-wildwachsende-Pflanzen--399914188", "spotlight" : {"@text":"\"Phänologie: Jahresmelder wildwachsende Pflanzen\\n\\nEintrittsdaten verschiedener Entwicklungsstadien von wildwachsenden Pflanzen und Waldbäumen vom Austrieb und vom Beginn der Blüte bis zum Blattfall (Jahresmelder, aktuell und historisch)\"","@confidence":"0.5","@support":"0","@types":"","@sparql":"","@policy":"whitelist","Resources":[{"@URI":"http://de.dbpedia.org/resource/Phänologie","@support":"728","@types":"","@surfaceForm":"Phänologie","@offset":"1","@similarityScore":"0.9986388830717957","@percentageOfSecondRank":"0.0"},{"@URI":"http://de.dbpedia.org/resource/Pflanzen","@support":"4361","@types":"DBpedia:Species","@surfaceForm":"Pflanzen","@offset":"40","@similarityScore":"0.9999239063331019","@percentageOfSecondRank":"3.386584090617141E-5"},{"@URI":"http://de.dbpedia.org/resource/Pflanzen","@support":"4361","@types":"DBpedia:Species","@surfaceForm":"Pflanzen","@offset":"120","@similarityScore":"0.9999239063331019","@percentageOfSecondRank":"3.386584090617141E-5"},{"@URI":"http://de.dbpedia.org/resource/Blüte","@support":"13472","@types":"","@surfaceForm":"Blüte","@offset":"176","@similarityScore":"0.999696518216047","@percentageOfSecondRank":"1.2144799565210746E-4"}]}, "uris": [
  {
    "dbpedia": "http://de.dbpedia.org/resource/Phänologie",
    "wikidata": "",
    "gnd": "4127856-2",
    "gndLabel": "Phänologie"
  },
  {
    "dbpedia": "http://de.dbpedia.org/resource/Pflanzen",
    "wikidata": "null",
    "gnd": "4045539-7",
    "gndLabel": "Pflanzen"
  },
  {
    "dbpedia": "http://de.dbpedia.org/resource/Blüte",
    "wikidata": "",
    "gnd": "4007210-1",
    "gndLabel": "Blüte"
  }
] }
