{ "URL" : "https://metadata.limbo-project.org/dataset-Terrestrische-Querprofile-der-Beweissicherung-zur-Baumassnahme-Anpassung-der-Fahrrinne-der-Unter-und-Aussenelbe-an-die-Containerschifffahrt-2113504515", "spotlight" : {"@text":"\"Terrestrische Querprofile der Beweissicherung zur Baumaßnahme \"Anpassung der Fahrrinne der Unter- und Außenelbe an die Containerschifffahrt\"\\n\\nDie terrestrischen Querprofile der Nullmessung erfassen den topographischen Ist-Zustand vor der Baumaßnahme \"Anpassung der Unter- und Außenelbe an die Containerschifffahrt\". Die Aufnahme der Querprofile erfolgte entlang der Elbe über das gesamte Gebiet der Umweltverträglichkeitsuntersuchung von Elbe-Km 586 bis Km 742. Der Erfassungsbereich der Profile erstreckt sich vom Deich bis zum Tideniedrigwasser. Der Regelprofilabstand beträgt 200 Meter, in einzelnen Bereichen erfolgte eine Profilverdichtung. Die terrestrischen Querprofile der 1 Wiederholungsmessung erfassen den topographischen Zustand zwei Jahre nach der Baumaßnahme \"Anpassung der Unter- und Außenelbe an die Containerschifffahrt\". Die terrestrischen Querprofile der 2 Wiederholungsmessung erfassen den topographischen Zustand sechs Jahre nach der Baumaßnahme \"Anpassung der Unter- und Außenelbe an die Containerschifffahrt\". Die Aufnahme der Querprofile erfolgte entlang der Elbe über das gesamte Gebiet der Umweltverträglichkeitsuntersuchung von Elbe-Km 586 bis Km 749 auf den Profilen der Nullmessung. Der Erfassungsbereich der Profile erstreckt sich über den veränderlichen Bereich vom Deichfuß bis zum Tideniedrigwasser. Der Regelprofilabstand beträgt 200 Meter, in einzelnen Bereichen erfolgte eine Profilverdichtung.\"","@confidence":"0.5","@support":"0","@types":"","@sparql":"","@policy":"whitelist","Resources":[{"@URI":"http://de.dbpedia.org/resource/Beweissicherung","@support":"39","@types":"","@surfaceForm":"Beweissicherung","@offset":"31","@similarityScore":"0.9999999572812621","@percentageOfSecondRank":"0.0"},{"@URI":"http://de.dbpedia.org/resource/Fahrwasser","@support":"452","@types":"","@surfaceForm":"Fahrrinne","@offset":"78","@similarityScore":"1.0","@percentageOfSecondRank":"0.0"},{"@URI":"http://de.dbpedia.org/resource/Elbe","@support":"12481","@types":"Wikidata:Q47521,Wikidata:Q4022,Schema:RiverBodyOfWater,Schema:Place,Schema:BodyOfWater,DBpedia:Stream,DBpedia:River,DBpedia:Place,DBpedia:NaturalPlace,DBpedia:Location,DBpedia:BodyOfWater","@surfaceForm":"Außenelbe","@offset":"103","@similarityScore":"1.0","@percentageOfSecondRank":"0.0"},{"@URI":"http://de.dbpedia.org/resource/Containerschiff","@support":"798","@types":"","@surfaceForm":"Containerschifffahrt","@offset":"120","@similarityScore":"0.9999999999957936","@percentageOfSecondRank":"0.0"},{"@URI":"http://de.dbpedia.org/resource/Elbe","@support":"12481","@types":"Wikidata:Q47521,Wikidata:Q4022,Schema:RiverBodyOfWater,Schema:Place,Schema:BodyOfWater,DBpedia:Stream,DBpedia:River,DBpedia:Place,DBpedia:NaturalPlace,DBpedia:Location,DBpedia:BodyOfWater","@surfaceForm":"Außenelbe","@offset":"279","@similarityScore":"1.0","@percentageOfSecondRank":"0.0"},{"@URI":"http://de.dbpedia.org/resource/Containerschiff","@support":"798","@types":"","@surfaceForm":"Containerschifffahrt","@offset":"296","@similarityScore":"0.9999999999957936","@percentageOfSecondRank":"0.0"},{"@URI":"http://de.dbpedia.org/resource/Elbe","@support":"12481","@types":"Wikidata:Q47521,Wikidata:Q4022,Schema:RiverBodyOfWater,Schema:Place,Schema:BodyOfWater,DBpedia:Stream,DBpedia:River,DBpedia:Place,DBpedia:NaturalPlace,DBpedia:Location,DBpedia:BodyOfWater","@surfaceForm":"Elbe","@offset":"369","@similarityScore":"0.999792538407346","@percentageOfSecondRank":"2.0750464167137363E-4"},{"@URI":"http://de.dbpedia.org/resource/Umweltverträglichkeitsprüfung","@support":"272","@types":"","@surfaceForm":"Umweltverträglichkeitsuntersuchung","@offset":"402","@similarityScore":"0.9963653044863042","@percentageOfSecondRank":"0.0"},{"@URI":"http://de.dbpedia.org/resource/Deich","@support":"1379","@types":"Wikidata:Q386724,Schema:CreativeWork,DBpedia:WrittenWork,DBpedia:Work","@surfaceForm":"Deich","@offset":"518","@similarityScore":"1.0","@percentageOfSecondRank":"0.0"},{"@URI":"http://de.dbpedia.org/resource/Gezeiten","@support":"1585","@types":"","@surfaceForm":"Tideniedrigwasser","@offset":"532","@similarityScore":"1.0","@percentageOfSecondRank":"0.0"},{"@URI":"http://de.dbpedia.org/resource/Elbe","@support":"12481","@types":"Wikidata:Q47521,Wikidata:Q4022,Schema:RiverBodyOfWater,Schema:Place,Schema:BodyOfWater,DBpedia:Stream,DBpedia:River,DBpedia:Place,DBpedia:NaturalPlace,DBpedia:Location,DBpedia:BodyOfWater","@surfaceForm":"Außenelbe","@offset":"802","@similarityScore":"1.0","@percentageOfSecondRank":"0.0"},{"@URI":"http://de.dbpedia.org/resource/Containerschiff","@support":"798","@types":"","@surfaceForm":"Containerschifffahrt","@offset":"819","@similarityScore":"0.9999999999957936","@percentageOfSecondRank":"0.0"},{"@URI":"http://de.dbpedia.org/resource/Elbe","@support":"12481","@types":"Wikidata:Q47521,Wikidata:Q4022,Schema:RiverBodyOfWater,Schema:Place,Schema:BodyOfWater,DBpedia:Stream,DBpedia:River,DBpedia:Place,DBpedia:NaturalPlace,DBpedia:Location,DBpedia:BodyOfWater","@surfaceForm":"Außenelbe","@offset":"996","@similarityScore":"1.0","@percentageOfSecondRank":"0.0"},{"@URI":"http://de.dbpedia.org/resource/Containerschiff","@support":"798","@types":"","@surfaceForm":"Containerschifffahrt","@offset":"1013","@similarityScore":"0.9999999999957936","@percentageOfSecondRank":"0.0"},{"@URI":"http://de.dbpedia.org/resource/Elbe","@support":"12481","@types":"Wikidata:Q47521,Wikidata:Q4022,Schema:RiverBodyOfWater,Schema:Place,Schema:BodyOfWater,DBpedia:Stream,DBpedia:River,DBpedia:Place,DBpedia:NaturalPlace,DBpedia:Location,DBpedia:BodyOfWater","@surfaceForm":"Elbe","@offset":"1086","@similarityScore":"0.999792538407346","@percentageOfSecondRank":"2.0750464167137363E-4"},{"@URI":"http://de.dbpedia.org/resource/Umweltverträglichkeitsprüfung","@support":"272","@types":"","@surfaceForm":"Umweltverträglichkeitsuntersuchung","@offset":"1119","@similarityScore":"0.9963653044863042","@percentageOfSecondRank":"0.0"},{"@URI":"http://de.dbpedia.org/resource/Gezeiten","@support":"1585","@types":"","@surfaceForm":"Tideniedrigwasser","@offset":"1317","@similarityScore":"1.0","@percentageOfSecondRank":"0.0"}]}, "uris": [
  {
    "dbpedia": "http://de.dbpedia.org/resource/Beweissicherung",
    "wikidata": "http://www.wikidata.org/entity/Q852605",
    "gnd": "4145176-4",
    "gndLabel": "Beweissicherung"
  },
  {
    "dbpedia": "http://de.dbpedia.org/resource/Fahrwasser",
    "wikidata": "http://www.wikidata.org/entity/Q1138251",
    "gnd": "4740784-0",
    "gndLabel": "Fahrwasser"
  },
  {
    "dbpedia": "http://de.dbpedia.org/resource/Elbe",
    "wikidata": "http://www.wikidata.org/entity/Q1644",
    "gnd": "4014170-6",
    "gndLabel": "Elbe"
  },
  {
    "dbpedia": "http://de.dbpedia.org/resource/Containerschiff",
    "wikidata": "http://www.wikidata.org/entity/Q17210",
    "gnd": "4113241-5",
    "gndLabel": "Containerschiff"
  },
  {
    "dbpedia": "http://de.dbpedia.org/resource/Umweltverträglichkeitsprüfung",
    "wikidata": "",
    "gnd": "4490847-7",
    "gndLabel": "Umweltverträglichkeitsuntersuchung"
  },
  {
    "dbpedia": "http://de.dbpedia.org/resource/Deich",
    "wikidata": "http://www.wikidata.org/entity/Q105190",
    "gnd": "4255921-2",
    "gndLabel": "Deichbau"
  }
] }
