{ "URL" : "https://metadata.limbo-project.org/dataset-Mittlerer-Luftdruck-auf-Meeresniveau-Nord-und-Ostsee-705659252", "spotlight" : {"@text":"\"Mittlerer Luftdruck auf Meeresniveau (Nord- und Ostsee)\\n\\nMittlerer Luftdruck auf Meeresniveau 1950-2015 (Nord- und Ostsee)\"","@confidence":"0.5","@support":"0","@types":"","@sparql":"","@policy":"whitelist","Resources":[{"@URI":"http://de.dbpedia.org/resource/Luftdruck","@support":"824","@types":"Wikidata:Q386724,Schema:CreativeWork,DBpedia:WrittenWork,DBpedia:Work","@surfaceForm":"Luftdruck","@offset":"11","@similarityScore":"0.9999999151066881","@percentageOfSecondRank":"8.086611782672546E-8"},{"@URI":"http://de.dbpedia.org/resource/Nordsee","@support":"6224","@types":"Schema:Place,DBpedia:Place,DBpedia:Location","@surfaceForm":"Nord-","@offset":"39","@similarityScore":"0.94387713053144","@percentageOfSecondRank":"0.038367628645577516"},{"@URI":"http://de.dbpedia.org/resource/Ostsee","@support":"7694","@types":"Schema:Place,DBpedia:Place,DBpedia:Location","@surfaceForm":"Ostsee","@offset":"49","@similarityScore":"0.99998650806263","@percentageOfSecondRank":"8.316143822905296E-6"},{"@URI":"http://de.dbpedia.org/resource/Luftdruck","@support":"824","@types":"Wikidata:Q386724,Schema:CreativeWork,DBpedia:WrittenWork,DBpedia:Work","@surfaceForm":"Luftdruck","@offset":"70","@similarityScore":"0.9999999151066881","@percentageOfSecondRank":"8.086611782672546E-8"},{"@URI":"http://de.dbpedia.org/resource/Nordsee","@support":"6224","@types":"Schema:Place,DBpedia:Place,DBpedia:Location","@surfaceForm":"Nord-","@offset":"108","@similarityScore":"0.94387713053144","@percentageOfSecondRank":"0.038367628645577516"},{"@URI":"http://de.dbpedia.org/resource/Ostsee","@support":"7694","@types":"Schema:Place,DBpedia:Place,DBpedia:Location","@surfaceForm":"Ostsee","@offset":"118","@similarityScore":"0.99998650806263","@percentageOfSecondRank":"8.316143822905296E-6"}]}, "uris": [
  {
    "dbpedia": "http://de.dbpedia.org/resource/Luftdruck",
    "wikidata": "http://www.wikidata.org/entity/Q81809",
    "gnd": "4132624-6",
    "gndLabel": "Luftdruck"
  },
  {
    "dbpedia": "http://de.dbpedia.org/resource/Nordsee",
    "wikidata": "http://www.wikidata.org/entity/Q1693",
    "gnd": "4042579-4",
    "gndLabel": "Nordsee"
  },
  {
    "dbpedia": "http://de.dbpedia.org/resource/Ostsee",
    "wikidata": "http://www.wikidata.org/entity/Q545",
    "gnd": "4044107-6",
    "gndLabel": "Ostsee"
  }
] }
