{ "URL" : "https://metadata.limbo-project.org/dataset-Taegliche-Stationsmessungen-der-Niederschlagshoehe-in-mm-1149796435", "spotlight" : {"@text":"\"Tägliche Stationsmessungen der Niederschlagshöhe in mm\\n\\nDiese Daten stammen aus den Stationen des DWD (Partnernetze nicht enthalten). Umfangreiche Stationsmetadaten (Stationsverlegungen, Instrumentenwechsel, Wechsel der Bezugszeit, Änderungen in den Algorithmen) werden mitgeliefert. Bis zum Stichtag sind die Daten versioniert, für jüngere Daten ist die Qualitätskontrolle noch nicht abgeschlossen. Datensatzbeschreibung: https://cdc.dwd.de/sdi/pid/RSK_MN004/BESCHREIBUNG_RSK_MN004_de.pdf https://cdc.dwd.de/sdi/pid/RSK_MN004/ISO_RSK_MN004.xml\"","@confidence":"0.5","@support":"0","@types":"","@sparql":"","@policy":"whitelist","Resources":[{"@URI":"http://de.dbpedia.org/resource/Niederschlag","@support":"2214","@types":"","@surfaceForm":"Niederschlagshöhe","@offset":"32","@similarityScore":"0.999999999984027","@percentageOfSecondRank":"0.0"},{"@URI":"http://de.dbpedia.org/resource/Stammen","@support":"36","@types":"Wikidata:Q486972,Schema:Place,DBpedia:Settlement,DBpedia:PopulatedPlace,DBpedia:Place,DBpedia:Location","@surfaceForm":"stammen","@offset":"71","@similarityScore":"0.9998050581118357","@percentageOfSecondRank":"0.0"},{"@URI":"http://de.dbpedia.org/resource/Deutscher_Wetterdienst","@support":"889","@types":"Wikidata:Q43229,Wikidata:Q24229398,DUL:SocialPerson,DUL:Agent,Schema:Organization,DBpedia:Organisation,DBpedia:Agent","@surfaceForm":"DWD","@offset":"101","@similarityScore":"0.9999999999926104","@percentageOfSecondRank":"0.0"},{"@URI":"http://de.dbpedia.org/resource/Algorithmus","@support":"3178","@types":"","@surfaceForm":"Algorithmen","@offset":"253","@similarityScore":"0.9999999957595946","@percentageOfSecondRank":"0.0"},{"@URI":"http://de.dbpedia.org/resource/Qualitätssicherung","@support":"999","@types":"","@surfaceForm":"Qualitätskontrolle","@offset":"358","@similarityScore":"0.9990077486203884","@percentageOfSecondRank":"0.0"},{"@URI":"http://de.dbpedia.org/resource/Strategic_Defense_Initiative","@support":"172","@types":"","@surfaceForm":"sdi","@offset":"445","@similarityScore":"0.9999991666254635","@percentageOfSecondRank":"0.0"},{"@URI":"http://de.dbpedia.org/resource/Process_identifier","@support":"46","@types":"","@surfaceForm":"pid","@offset":"449","@similarityScore":"0.9910438875632489","@percentageOfSecondRank":"0.009035124109286242"},{"@URI":"http://de.dbpedia.org/resource/Strategic_Defense_Initiative","@support":"172","@types":"","@surfaceForm":"sdi","@offset":"512","@similarityScore":"0.9999991666254635","@percentageOfSecondRank":"0.0"},{"@URI":"http://de.dbpedia.org/resource/Process_identifier","@support":"46","@types":"","@surfaceForm":"pid","@offset":"516","@similarityScore":"0.9910438875632489","@percentageOfSecondRank":"0.009035124109286242"}]}, "uris": [
  {
    "dbpedia": "http://de.dbpedia.org/resource/Niederschlag",
    "wikidata": "http://ur.dbpedia.org/resource/بارندگی",
    "gnd": "4136146-5",
    "gndLabel": "Niederschlagsmenge"
  },
  {
    "dbpedia": "http://de.dbpedia.org/resource/Deutscher_Wetterdienst",
    "wikidata": "http://www.wikidata.org/entity/Q325859",
    "gnd": "1012332-5",
    "gndLabel": "Deutscher Wetterdienst"
  },
  {
    "dbpedia": "http://de.dbpedia.org/resource/Algorithmus",
    "wikidata": "http://www.wikidata.org/entity/Q8366",
    "gnd": "4001183-5",
    "gndLabel": "Algorithmus"
  },
  {
    "dbpedia": "http://de.dbpedia.org/resource/Qualitätssicherung",
    "wikidata": "",
    "gnd": "4047968-7",
    "gndLabel": "Qualitätskontrolle"
  }
] }
