{ "URL" : "https://metadata.limbo-project.org/dataset-Mittlerer-Luftdruck-auf-Meeresniveau-global-1575213352", "spotlight" : {"@text":"\"Mittlerer Luftdruck auf Meeresniveau (global)\\n\\nMittlerer Luftdruck auf Meeresniveau (global)\"","@confidence":"0.5","@support":"0","@types":"","@sparql":"","@policy":"whitelist","Resources":[{"@URI":"http://de.dbpedia.org/resource/Luftdruck","@support":"824","@types":"Wikidata:Q386724,Schema:CreativeWork,DBpedia:WrittenWork,DBpedia:Work","@surfaceForm":"Luftdruck","@offset":"11","@similarityScore":"0.9999999313378135","@percentageOfSecondRank":"6.540497147223072E-8"},{"@URI":"http://de.dbpedia.org/resource/Luftdruck","@support":"824","@types":"Wikidata:Q386724,Schema:CreativeWork,DBpedia:WrittenWork,DBpedia:Work","@surfaceForm":"Luftdruck","@offset":"60","@similarityScore":"0.9999999313378135","@percentageOfSecondRank":"6.540497147223072E-8"}]}, "uris": [
  {
    "dbpedia": "http://de.dbpedia.org/resource/Luftdruck",
    "wikidata": "http://www.wikidata.org/entity/Q81809",
    "gnd": "4132624-6",
    "gndLabel": "Luftdruck"
  }
] }
